Messy.Cats Introduction • messy.cats
…
#> [37] "Hypagyrtis unipunctata" "Iridopsis ephyraria"    "Iridopsis larvaria"    
#> [40] "Itame pustularia"       "Lithophane antennata"   "Lithophane bethunei"   
#> [43] "Lymantria dispar"       "Malacasoma disstria"    "Melanolophia canadaria"
#> [46] "Morrisonia confusa"     "Morrisonia latex"       "Nematocampa resistaria"
#> [49] "Nola triquetrana"       "Orgyia leucostigma"     "Orthosia rubescens"    
#> [52] "Parallelia bistriaris"  "Phigalea titea"         "Prochoerodes lineola"  
#> [55] "Achatia distincta"      "Alsophila pometaria"    "Amphipyra pyramidoides"
#> [58] "Crocigrapha normani"    "Ennomos subsignaria"    "Eutrapela clemataria"  
#> [61] "Himella intractata"     "Hypagyrtis unipunctata" "Iridopsis ephyraria"   
#> [64] "Iridopsis larvaria"     "Itame pustularia"       "Lithophane antennata"  
#> [67] "Lithophane bethunei"    "Lymantria dispar"       "Malacasoma disstria"   
#> [70] "Melanolophia canadaria" "Morrisonia confusa"     "Morrisonia latex"      
#> [73] "Nematocampa resistaria" "Nola triquetrana"
cat_join(messy_df = messy_caterpillars, clean_df = clean_caterpillars, by = c("CaterpillarSpecies", "species"), method="jaccard", threshold = .49,join="left")
#> # A tibble: 62 x 5
#>    species                `Avg Weight (mg)` `Avg Length (cm)` count  year
#>    <chr>                              <dbl>             <dbl> <int> <dbl>
#>  1 Achatia distincta                  0.809              2.64    24  2021
#>  2 Achatia distincta                  0.809              2.64    14  2020
#>  3 Achatia distincta                  0.809              2.64    16  2019
#>  4 Alsophila pometaria                2.03               1.73     8  2021
#>  5 Alsophila pometaria                2.03               1.73    18  2020
#>  6 Alsophila pometaria                2.03               1.73    11  2019
#>  7 Amphipyra pyramidoides             0.914              1.76    26  2021
#>  8 Amphipyra pyramidoides             0.914              1.76    26  2020
#>  9 Amphipyra pyramidoides             0.914              1.76     9  2019
#> 10 Himella intractata                 1.53               2.54     3  2021
#> # ... with 52 more rows
…
